{
  "type": "service_account",
  "project_id": "prime-rainfall-321012",
  "private_key_id": "d6264a4a58bfdb5a72a407a6cb7737b4991a1e67",
  "private_key": "-----BEGIN PRIVATE KEY-----\nMIIEvQIBADANBgkqhkiG9w0BAQEFAASCBKcwggSjAgEAAoIBAQDInzhHu8V9snSp\n7m9LNs4rGOhQSIsN6bKln+vQ6PEsEBtciZ+RtW1MAX9HZPgFDf3hkyJi4x46pHXE\nEm6Ya9ZGGPU2nSZIg7gqKcHaRvnWGEwsOeka0cA23zM7+xvdIW8MmkyQzu13UXrU\nvh5uxAd4L+QdMrWuoGIIbZa2xXIKUst1sKKIQf12Vs5CnfcvQiRwrp0WdSAtKga+\nKBJ2FW7fUSCKU4M900SkYdbDAoXwfue5PeX916yaL1XMQBsXG7e2JCkIZOBE466T\nYUmBtk0Jp+ex8Y+laYcTIEMXeaXtZHUrVOJ5FnuT/RmbrlEq5oCN7p8vYXcWsLI0\nA7wZEok7AgMBAAECggEAJpSP4yOV7/0weDlVB7bLYPhSPJYmv48wfq9JTwxszJdw\nW5RPrlqgYRxsmJMvKvGs4ANGepPIjWhxCTquL/uU4jgMd+syoIFMGjebgtlhVC2q\nAFtGm5S4jRTRKni4vAag72CA1twkSGzP3TeObKif8xnqmT7WN3W6RHqmoBFKQ/ee\n4VBxMCa+JCeCTnM0Ibgmoviu7PciM6j7a5F9Gj20YQTa/8Y80KcESIBrr7rVcOYt\nOim9//TIitY/Y1RFm9W/BN26ZhSrFpj3Hai2zSIClR5mBAKol00bGJvYfkpPmhbb\nU5VlGRzkNKSvkLTfQhXmuHIlt4N68kWr+c3DxmhqYQKBgQDmypJRuBvQjfNEJ1gJ\nHs5R8MLWfhvKG1KViPeJ7OleeyaVddW8M2ph/LSu9WK0Q+OHx5SSeBZ4xGJcAEIu\n7p2Jfz5e4ANvrBR/4kCMEgY9T/DZ+01ny1m2gSbqrM4TVQZIXR2B2/zDll+arPIt\nXvqfIYO+GTG1vBMAXKa/u4j2ywKBgQDeiQwvxc+4DSQ3Nigel7qQW/tBjffP2RrM\nGHgpjzqtMKYLLdD8gXclaXwyv6ixMyUsTWoHYGd4s+ID3DVQ97Hb2sj173Fm8Wlx\nOS9v3ZADjjniaz9U94qjGJZCIYdGsvfU4jB1DuRZ2eM0W2DV1mt31NjuAyuAJ80z\nbRfE2PP5UQKBgQCw9R2fvvTEwjKGTUx5Ib+8oEgkQml4W97EfVKf1KFTKkX5T3Jk\nbV/iZer8Q3Y9Fdi94U+PxrgkPR/VvvUAG0F7ja76+/RmiaDmNUqcm61hEYxw9vjw\n3sCY6Qo34evYctbwYUUgrtZt+Tyw0m6WTz8HCKGE/rhYyi4flurcFCT+ZQKBgDYc\nnRoAv8HBcEz8nkTSIEt6El6eZuPjpuB6Er4IVfxHGBkfyvGbiZ1PSSQN9rcf+KoN\nKPsiNgbjttG5ej11/Ym4aaVj0+90RG+DuEU7WwmCTBECgyPmDZAbKm5qOLq4Sgs5\n9Q6B0IUItnbEwYc93GQHHbjCjJFdHEik/mKfXrQBAoGASkQNGDGE0CPJoDBS3xgl\n9DzLcefuBdXiO0n6hzqj9peEYYhdrpo+yOzBZtqsEPi7F38Dd2HDXGoP3D061ji/\niY35TeScixvG+rJ4FJULn8hraWjOq7c0ZAfKMgDzpelXt86ac/WmIMsuTafnQI37\n4NfdnTGj8ib+3FOhAtjqDds=\n-----END PRIVATE KEY-----\n",
  "client_email": "firebase-adminsdk-q92of@prime-rainfall-321012.iam.gserviceaccount.com",
  "client_id": "114995283803792208740",
  "auth_uri": "https://accounts.google.com/o/oauth2/auth",
  "token_uri": "https://oauth2.googleapis.com/token",
  "auth_provider_x509_cert_url": "https://www.googleapis.com/oauth2/v1/certs",
  "client_x509_cert_url": "https://www.googleapis.com/robot/v1/metadata/x509/firebase-adminsdk-q92of%40prime-rainfall-321012.iam.gserviceaccount.com"
}
